<?xml version="1.0" encoding="iso-8859-1"?>
<!-- Generator: Adobe Illustrator 19.0.0, SVG Export Plug-In . SVG Version: 6.00 Build 0)  -->
<svg xmlns="http://www.w3.org/2000/svg" xmlns:xlink="http://www.w3.org/1999/xlink" version="1.1" id="Layer_1" x="0px" y="0px" viewBox="0 0 512.001 512.001" style="enable-background:new 0 0 512.001 512.001;" xml:space="preserve" width="512px" height="512px">
<g>
	<g>
		<path d="M255.033,260.47l-49.108-14.892l-5.342-10.684c-1.665-3.331-5.472-4.872-8.916-3.805v-1.859    c20.336-14.691,34.137-37.895,36.094-64.352c9.53-2.663,17.029-10.412,18.599-20.072c0.991-6.093-0.303-12.092-3.265-17.078    c9.48-4.963,15.968-14.893,15.968-26.314c0-10.358-5.489-19.796-14.024-25.113c0.471-1.936,0.712-3.931,0.712-5.949    c0-13.923-11.327-25.25-25.25-25.25c-3.34,0-6.528,0.658-9.448,1.841c-14.453-13.13-32.959-20.32-52.677-20.32h-35.5    c-19.631,0-38.214,7.202-52.679,20.319c-2.92-1.183-6.107-1.84-9.446-1.84c-13.923,0-25.25,11.327-25.25,25.25    c0,2.019,0.241,4.014,0.712,5.949c-8.536,5.317-14.024,14.755-14.024,25.113c0,11.415,6.48,21.339,15.95,26.305    c-2.955,4.969-4.242,10.966-3.247,17.087c1.57,9.66,9.069,17.409,18.599,20.072c1.953,26.421,15.72,49.596,36.01,64.29v1.893    c-3.422-1.016-7.181,0.529-8.833,3.832l-5.338,10.675l-51.01,15.303C9.773,265.236,0,278.372,0,293.559v184.315    c0,4.142,3.358,7.5,7.5,7.5s7.5-3.358,7.5-7.5V293.559c0-0.55,0.025-1.094,0.07-1.634l29.979,29.979    c5.289,5.289,8.201,12.32,8.201,19.799v136.17c0,4.142,3.358,7.5,7.5,7.5c4.142,0,7.5-3.358,7.5-7.5v-136.17    c0-11.486-4.473-22.284-12.595-30.406l-33.028-33.028c1.768-1.32,3.781-2.363,6.003-3.029l33.791-10.137    c2.646,7.437,22.296,58.513,74.044,93.011c1.26,0.84,2.71,1.26,4.16,1.26s2.9-0.42,4.16-1.26    c53.481-35.654,72.559-88.359,74.129-92.922l31.767,9.633c0.726,0.22,1.458,0.325,2.179,0.325c3.217,0,6.192-2.087,7.174-5.326    C261.236,265.86,258.997,261.673,255.033,260.47z M193.896,255.062l-25.345,31.682c-0.348,0.435-0.766,0.524-1.096,0.516    c-0.307-0.005-0.744-0.104-1.078-0.55l-14.359-19.146l38.503-19.252L193.896,255.062z M140.625,256.489L104.5,238.427v-0.503    c11.016,5.022,23.249,7.825,36.125,7.825c12.844,0,25.047-2.791,36.042-7.79v0.509L140.625,256.489z M220.5,60.103    c5.652,0,10.25,4.598,10.25,10.25c0,2.002-0.59,3.951-1.705,5.636c-1.325,2.001-1.612,4.515-0.772,6.763    c0.84,2.248,2.704,3.958,5.015,4.602c6.344,1.766,10.775,7.548,10.775,14.061c0,8.099-6.589,14.688-14.688,14.688    s-14.688-6.589-14.688-14.688c0-3.629,1.395-7.144,3.928-9.896c1.624-1.764,2.306-4.198,1.836-6.549    c-0.47-2.351-2.036-4.336-4.212-5.34c-3.638-1.679-5.989-5.32-5.989-9.277C210.25,64.701,214.848,60.103,220.5,60.103z     M37.187,101.415c0.001-6.512,4.431-12.294,10.775-14.06c2.312-0.644,4.176-2.354,5.015-4.602    c0.839-2.248,0.552-4.762-0.772-6.763c-1.115-1.685-1.705-3.634-1.705-5.636c0-5.652,4.598-10.25,10.25-10.25S71,64.701,71,70.353    c0,3.957-2.351,7.599-5.989,9.277c-2.177,1.004-3.743,2.989-4.212,5.34c-0.47,2.351,0.212,4.785,1.836,6.549    c2.533,2.752,3.928,6.267,3.928,9.896c0,8.099-6.589,14.688-14.688,14.688S37.187,109.514,37.187,101.415z M68.25,158.374    c0-4.142-3.358-7.5-7.5-7.5c-5.516,0-10.269-3.643-11.054-8.474c-0.895-5.504,2.473-10.567,7.833-11.775    c0.29-0.065,0.569-0.151,0.843-0.247c13.254-2.972,23.19-14.825,23.19-28.962c0-4.587-1.076-9.066-3.104-13.125    C83.19,83.622,86,77.182,86,70.353c0-5.063-1.504-9.78-4.08-13.737c11.447-9.69,25.814-14.992,40.955-14.992h35.5    c15.208,0,29.532,5.276,40.967,14.974c-2.584,3.961-4.092,8.684-4.092,13.755c0,6.829,2.81,13.269,7.542,17.938    c-2.029,4.059-3.104,8.538-3.104,13.125c0,14.422,10.34,26.47,23.995,29.134c0.23,0.094,0.466,0.179,0.709,0.251    c4.289,1.281,8.126,5.676,7.163,11.6c-0.785,4.831-5.538,8.474-11.054,8.474c-4.142,0-7.5,3.358-7.5,7.5    c0,39.908-32.467,72.375-72.375,72.375S68.25,198.282,68.25,158.374z M88.353,253.063l2.376-4.751l38.504,19.252l-14.359,19.146    c-0.334,0.446-0.771,0.545-1.078,0.55c-0.328,0.026-0.748-0.081-1.096-0.516l-25.145-31.431    C87.938,254.613,88.207,253.854,88.353,253.063z M140.625,342.77c-33.576-23.863-51.647-55.094-59.327-71.267l19.689,24.611    c3.133,3.916,7.778,6.146,12.779,6.146c0.088,0,0.176-0.001,0.264-0.002c5.101-0.08,9.782-2.467,12.843-6.548l6.251-8.335v30.75    c0,4.142,3.358,7.5,7.5,7.5c4.142,0,7.5-3.358,7.5-7.5v-30.75l6.251,8.335c3.061,4.082,7.742,6.468,12.843,6.548    c0.088,0.001,0.176,0.002,0.264,0.002c5.001,0,9.646-2.23,12.779-6.146l19.749-24.687    C192.392,287.556,174.375,318.796,140.625,342.77z" fill="#0b3f8b"/>
	</g>
</g>
<g>
	<g>
		<path d="M163.1,179.175c-3.217-2.61-7.94-2.117-10.549,1.1c-3.19,3.934-7.425,6.1-11.925,6.1s-8.735-2.166-11.925-6.1    c-2.608-3.217-7.332-3.709-10.549-1.1c-3.217,2.609-3.709,7.332-1.1,10.549c6.005,7.404,14.598,11.65,23.575,11.65    s17.567-4.247,23.573-11.65C166.809,186.507,166.317,181.784,163.1,179.175z" fill="#0b3f8b"/>
	</g>
</g>
<g>
	<g>
		<path d="M105.125,133.124c-4.142,0-7.5,3.358-7.5,7.5v8.875c0,4.142,3.358,7.5,7.5,7.5c4.142,0,7.5-3.358,7.5-7.5v-8.875    C112.625,136.482,109.267,133.124,105.125,133.124z" fill="#0b3f8b"/>
	</g>
</g>
<g>
	<g>
		<path d="M176.125,133.124c-4.142,0-7.5,3.358-7.5,7.5v8.875c0,4.142,3.358,7.5,7.5,7.5c4.142,0,7.5-3.358,7.5-7.5v-8.875    C183.625,136.482,180.267,133.124,176.125,133.124z" fill="#0b3f8b"/>
	</g>
</g>
<g>
	<g>
		<path d="M252.428,295.071c-2.929-2.929-7.678-2.929-10.606,0l-16.227,16.227C217.473,319.42,213,330.218,213,341.704v136.17    c0,4.142,3.358,7.5,7.5,7.5c4.142,0,7.5-3.358,7.5-7.5v-136.17c0-7.479,2.913-14.511,8.201-19.799l16.227-16.227    C255.357,302.749,255.357,298,252.428,295.071z" fill="#0b3f8b"/>
	</g>
</g>
<g>
	<g>
		<path d="M402.725,241.3c-3.217-2.61-7.941-2.117-10.549,1.1c-3.19,3.934-7.425,6.1-11.925,6.1s-8.735-2.166-11.925-6.1    c-2.608-3.217-7.332-3.709-10.549-1.1c-3.217,2.609-3.709,7.332-1.1,10.549c6.004,7.403,14.596,11.65,23.573,11.65    s17.569-4.247,23.575-11.65C406.434,248.632,405.942,243.909,402.725,241.3z" fill="#0b3f8b"/>
	</g>
</g>
<g>
	<g>
		<path d="M300.375,372.749c-4.142,0-7.5,3.358-7.5,7.5v97.625c0,4.142,3.358,7.5,7.5,7.5c4.142,0,7.5-3.358,7.5-7.5v-97.625    C307.875,376.107,304.517,372.749,300.375,372.749z" fill="#0b3f8b"/>
	</g>
</g>
<g>
	<g>
		<path d="M460.125,372.749c-4.142,0-7.5,3.358-7.5,7.5v97.625c0,4.142,3.358,7.5,7.5,7.5c4.142,0,7.5-3.358,7.5-7.5v-97.625    C467.625,376.107,464.267,372.749,460.125,372.749z" fill="#0b3f8b"/>
	</g>
</g>
<g>
	<g>
		<path d="M486.928,321.496c4.685-5.942,7.322-13.349,7.322-21.122c0-12.639-6.932-23.95-17.779-29.834    c0.02-0.41,0.029-0.819,0.029-1.228c0-9.749-4.72-18.673-12.425-24.165c0.51-1.73,0.984-3.472,1.384-5.236    c0.972-4.283,1.592-8.809,1.883-13.769c11.805-17.418,18.033-37.738,18.033-58.893c0-57.966-47.159-105.125-105.125-105.125    s-105.125,47.159-105.125,105.125c0,21.157,6.229,41.477,18.034,58.894c0.291,4.963,0.911,9.488,1.882,13.767    c0.4,1.763,0.874,3.505,1.384,5.236C288.72,250.638,284,259.562,284,269.312c0,0.409,0.01,0.818,0.029,1.228    c-10.848,5.884-17.779,17.196-17.779,29.834c0,7.773,2.638,15.18,7.322,21.122c-15.456,9.274-25.072,25.933-25.072,44.421v111.961    c0,4.142,3.358,7.5,7.5,7.5c4.142,0,7.5-3.358,7.5-7.5V365.917c0-15.166,9.099-28.605,23.18-34.238l1.435-0.574    c22.183,29.98,56.357,47.769,92.136,47.769c36.268,0,69.693-17.379,92.129-47.771l1.441,0.576    c14.082,5.633,23.18,19.072,23.18,34.238v111.957c0,4.142,3.358,7.5,7.5,7.5c4.142,0,7.5-3.358,7.5-7.5V365.917    C512,347.429,502.384,330.77,486.928,321.496z M290.125,167.249c0-49.695,40.43-90.125,90.125-90.125s90.125,40.43,90.125,90.125    c0,12.641-2.597,24.93-7.593,36.272c-10.806-23.253-34.824-29.769-58.189-36.091c-18.889-5.111-38.421-10.397-55.159-23.787    c-1.769-1.415-4.084-1.956-6.294-1.469c-2.212,0.486-4.086,1.945-5.099,3.971c-0.078,0.155-7.935,15.603-23.271,23.271    c-3.705,1.852-5.207,6.357-3.354,10.062c1.852,3.705,6.356,5.208,10.062,3.354c12.207-6.104,20.618-15.796,25.36-22.506    c17.47,11.742,36.666,16.937,53.837,21.583c5.636,1.525,10.823,2.971,15.564,4.478c-0.164-0.003-0.326-0.012-0.49-0.012    c-9.14,0-17.161,4.881-21.593,12.174c-4.146-2.134-8.905-3.299-13.906-3.299c-5.002,0-9.762,1.165-13.907,3.299    c-4.433-7.292-12.454-12.174-21.593-12.174c-13.923,0-25.25,11.327-25.25,25.25c0,13.923,11.327,25.25,25.25,25.25    c12.976,0,23.693-9.84,25.091-22.45c2.447-2.604,6.273-4.175,10.409-4.175c4.135,0,7.961,1.571,10.408,4.175    c1.398,12.61,12.115,22.45,25.091,22.45c13.923,0,25.25-11.327,25.25-25.25c0-7.294-3.112-13.872-8.074-18.485    c10.726,5.845,17.323,14.005,19.768,28.417c-0.126,0.503-0.206,1.025-0.226,1.564c-0.179,5.001-0.715,9.407-1.637,13.471    c-3.57,15.733-12.492,30.019-25.121,40.228c-12.995,10.504-28.714,16.056-45.46,16.056c-16.746,0-32.466-5.552-45.46-16.056    c-12.629-10.208-21.55-24.495-25.121-40.228c-0.92-4.056-1.456-8.458-1.636-13.458c-0.072-1.986-0.911-3.769-2.227-5.067    C295.542,203.066,290.125,185.524,290.125,167.249z M426,211.624c0,5.652-4.598,10.25-10.25,10.25    c-5.652,0-10.25-4.598-10.25-10.25s4.598-10.25,10.25-10.25C421.402,201.374,426,205.972,426,211.624z M355,211.624    c0,5.652-4.598,10.25-10.25,10.25c-5.652,0-10.25-4.598-10.25-10.25s4.598-10.25,10.25-10.25    C350.402,201.374,355,205.972,355,211.624z M423.368,311.474c-11.661,10.825-26.915,16.899-43.119,16.899    c-16.187,0-31.449-6.079-43.114-16.901c4.684-2.05,8.563-5.415,11.225-9.65c10.102,3.957,20.928,6.052,31.89,6.052    c10.962,0,21.788-2.095,31.89-6.052C414.803,306.059,418.684,309.424,423.368,311.474z M288.039,314.98    c-4.281-3.618-6.788-8.938-6.788-14.607c-0.001-8.293,5.377-15.572,13.381-18.113c3.832-1.216,6.022-5.237,4.968-9.116    c-0.41-1.505-0.6-2.723-0.6-3.832c0-3.478,1.22-6.738,3.326-9.308c5.559,10.929,13.399,20.692,23.034,28.48    c2.982,2.41,6.116,4.607,9.372,6.59c-1.054,1.214-2.385,2.183-3.925,2.799L288.039,314.98z M380.25,363.874    c-30.23,0-58.166-13.965-77.672-38.554l19.46-7.783c14.887,16.476,35.845,25.837,58.213,25.837    c22.389,0,43.325-9.358,58.211-25.838l19.467,7.787C438.414,349.904,410.431,363.874,380.25,363.874z M472.461,314.981    l-42.769-17.108c-1.54-0.616-2.87-1.585-3.924-2.799c3.255-1.984,6.39-4.18,9.372-6.59c9.635-7.788,17.475-17.552,23.034-28.48    c2.106,2.57,3.326,5.83,3.326,9.308c0,1.109-0.19,2.327-0.6,3.832c-1.055,3.879,1.136,7.9,4.968,9.116    c8.004,2.541,13.382,9.82,13.382,18.114C479.25,306.043,476.742,311.363,472.461,314.981z" fill="#0b3f8b"/>
	</g>
</g>
<g>
</g>
<g>
</g>
<g>
</g>
<g>
</g>
<g>
</g>
<g>
</g>
<g>
</g>
<g>
</g>
<g>
</g>
<g>
</g>
<g>
</g>
<g>
</g>
<g>
</g>
<g>
</g>
<g>
</g>
</svg>
